<mxfile host="app.diagrams.net" modified="2020-11-03T03:04:05.860Z" agent="5.0 (Windows NT 10.0; Win64; x64) AppleWebKit/537.36 (KHTML, like Gecko) Chrome/87.0.4280.40 Safari/537.36" etag="nkTTTbbaRtBZyMtwP7j2" version="13.8.8" type="gitlab">
  <diagram id="6a731a19-8d31-9384-78a2-239565b7b9f0" name="Page-1">
    <mxGraphModel dx="3149" dy="1663" grid="1" gridSize="10" guides="1" tooltips="1" connect="1" arrows="1" fold="1" page="1" pageScale="1" pageWidth="2336" pageHeight="1654" background="#ffffff" math="0" shadow="0">
      <root>
        <mxCell id="0" />
        <mxCell id="1" parent="0" />
        <mxCell id="1350" value="&lt;font style=&quot;font-size: 18px&quot;&gt;&lt;br&gt;Contracciones&lt;br&gt;uterinas&lt;br&gt;1&lt;br&gt;&lt;/font&gt;" style="ellipse;whiteSpace=wrap;html=1;shadow=0;fontFamily=Helvetica;fontSize=20;fontColor=#FFFFFF;align=center;strokeWidth=3;fillColor=#1699D3;strokeColor=none;" parent="1" vertex="1">
          <mxGeometry x="485" y="453.5" width="126.5" height="131.5" as="geometry" />
        </mxCell>
        <mxCell id="1351" value="&lt;br&gt;Frecuencia&amp;nbsp;&lt;br&gt;Basal&lt;br&gt;2" style="ellipse;whiteSpace=wrap;html=1;shadow=0;fontFamily=Helvetica;fontSize=20;fontColor=#ffffff;align=center;strokeWidth=3;fillColor=#6d8764;strokeColor=none;" parent="1" vertex="1">
          <mxGeometry x="1103.5" y="241.5" width="120" height="120" as="geometry" />
        </mxCell>
        <mxCell id="1354" value="&lt;font style=&quot;font-size: 17px&quot;&gt;Desaceleraciones&lt;br&gt;5&lt;br&gt;&lt;/font&gt;" style="ellipse;whiteSpace=wrap;html=1;shadow=0;fontFamily=Helvetica;fontSize=20;fontColor=#FFFFFF;align=center;strokeWidth=3;fillColor=#736ca8;strokeColor=none;" parent="1" vertex="1">
          <mxGeometry x="1581" y="1145.64" width="149" height="150" as="geometry" />
        </mxCell>
        <mxCell id="teG91DEkw00-c3EPGH60-1701" value="" style="edgeStyle=orthogonalEdgeStyle;rounded=0;orthogonalLoop=1;jettySize=auto;html=1;shadow=0;strokeColor=#FFB366;" edge="1" parent="1" source="1355" target="teG91DEkw00-c3EPGH60-1700">
          <mxGeometry relative="1" as="geometry" />
        </mxCell>
        <mxCell id="1355" value="&lt;font style=&quot;font-size: 24px&quot;&gt;&lt;b&gt;&lt;u&gt;Generalidades&lt;/u&gt;&lt;/b&gt;&lt;/font&gt;" style="ellipse;whiteSpace=wrap;html=1;shadow=0;fontFamily=Helvetica;fontSize=20;fontColor=#FFFFFF;align=center;strokeWidth=6;fillColor=#F08705;strokeColor=#994C00;" parent="1" vertex="1">
          <mxGeometry x="769.5" y="1230" width="180.5" height="178.95" as="geometry" />
        </mxCell>
        <mxCell id="teG91DEkw00-c3EPGH60-1548" value="" style="edgeStyle=orthogonalEdgeStyle;rounded=0;orthogonalLoop=1;jettySize=auto;html=1;strokeColor=#0000CC;" edge="1" parent="1" source="1358" target="teG91DEkw00-c3EPGH60-1547">
          <mxGeometry relative="1" as="geometry" />
        </mxCell>
        <mxCell id="1358" value="Mayor de 5" style="rounded=1;fillColor=#64BBE2;strokeColor=none;strokeWidth=3;shadow=0;html=1;fontColor=#FFFFFF;" parent="1" vertex="1">
          <mxGeometry x="310" y="610" width="130" height="40" as="geometry" />
        </mxCell>
        <mxCell id="1359" style="endArrow=none;strokeWidth=6;strokeColor=#1699D3;html=1;" parent="1" source="1515" target="1350" edge="1">
          <mxGeometry relative="1" as="geometry" />
        </mxCell>
        <mxCell id="1360" style="endArrow=none;strokeWidth=6;strokeColor=#3A5431;html=1;fillColor=#6d8764;" parent="1" source="1515" target="1351" edge="1">
          <mxGeometry relative="1" as="geometry" />
        </mxCell>
        <mxCell id="1364" style="endArrow=none;strokeWidth=6;strokeColor=#736ca8;html=1;" parent="1" source="1515" target="1354" edge="1">
          <mxGeometry relative="1" as="geometry" />
        </mxCell>
        <mxCell id="1365" value="" style="edgeStyle=none;endArrow=none;strokeWidth=6;strokeColor=#F08705;html=1;" parent="1" source="1515" target="1355" edge="1">
          <mxGeometry x="181" y="226.5" width="100" height="100" as="geometry">
            <mxPoint x="181" y="326.5" as="sourcePoint" />
            <mxPoint x="281" y="226.5" as="targetPoint" />
          </mxGeometry>
        </mxCell>
        <mxCell id="teG91DEkw00-c3EPGH60-1544" value="" style="edgeStyle=orthogonalEdgeStyle;rounded=0;orthogonalLoop=1;jettySize=auto;html=1;strokeColor=#0000CC;" edge="1" parent="1" source="1369" target="teG91DEkw00-c3EPGH60-1543">
          <mxGeometry relative="1" as="geometry" />
        </mxCell>
        <mxCell id="1369" value="4 a 5" style="rounded=1;fillColor=#64BBE2;strokeColor=none;strokeWidth=3;shadow=0;html=1;fontColor=#FFFFFF;" parent="1" vertex="1">
          <mxGeometry x="280" y="465" width="130" height="40" as="geometry" />
        </mxCell>
        <mxCell id="teG91DEkw00-c3EPGH60-1546" value="" style="edgeStyle=orthogonalEdgeStyle;rounded=0;orthogonalLoop=1;jettySize=auto;html=1;strokeColor=#0000CC;" edge="1" parent="1" source="1371" target="teG91DEkw00-c3EPGH60-1545">
          <mxGeometry relative="1" as="geometry" />
        </mxCell>
        <mxCell id="1371" value="Menor o igual a 3" style="rounded=1;fillColor=#64BBE2;strokeColor=none;strokeWidth=3;shadow=0;html=1;fontColor=#FFFFFF;" parent="1" vertex="1">
          <mxGeometry x="370" y="340" width="130" height="40" as="geometry" />
        </mxCell>
        <mxCell id="teG91DEkw00-c3EPGH60-1552" value="" style="edgeStyle=orthogonalEdgeStyle;rounded=0;orthogonalLoop=1;jettySize=auto;html=1;strokeColor=#0000CC;" edge="1" parent="1" source="1373" target="teG91DEkw00-c3EPGH60-1551">
          <mxGeometry relative="1" as="geometry" />
        </mxCell>
        <mxCell id="1373" value="10 minutos" style="rounded=1;fillColor=#64BBE2;strokeColor=none;strokeWidth=3;shadow=0;html=1;fontColor=#FFFFFF;" parent="1" vertex="1">
          <mxGeometry x="570" y="340" width="130" height="40" as="geometry" />
        </mxCell>
        <mxCell id="1379" value="Conteo" style="edgeStyle=none;endArrow=none;strokeWidth=3;strokeColor=#64BBE2;html=1;" parent="1" source="1350" target="1358" edge="1">
          <mxGeometry x="-260" y="250" width="100" height="100" as="geometry">
            <mxPoint x="-260" y="350" as="sourcePoint" />
            <mxPoint x="-160" y="250" as="targetPoint" />
          </mxGeometry>
        </mxCell>
        <mxCell id="1381" value="Conteo de" style="edgeStyle=none;endArrow=none;strokeWidth=3;strokeColor=#64BBE2;html=1;" parent="1" source="1350" target="1369" edge="1">
          <mxGeometry x="-260" y="250" width="100" height="100" as="geometry">
            <mxPoint x="-260" y="350" as="sourcePoint" />
            <mxPoint x="-160" y="250" as="targetPoint" />
          </mxGeometry>
        </mxCell>
        <mxCell id="1383" value="Conteo" style="edgeStyle=none;endArrow=none;strokeWidth=3;strokeColor=#64BBE2;html=1;" parent="1" source="1350" target="1371" edge="1">
          <mxGeometry x="-260" y="250" width="100" height="100" as="geometry">
            <mxPoint x="-260" y="350" as="sourcePoint" />
            <mxPoint x="-160" y="250" as="targetPoint" />
          </mxGeometry>
        </mxCell>
        <mxCell id="1385" value="Estudio de&amp;nbsp;" style="edgeStyle=none;endArrow=none;strokeWidth=3;strokeColor=#64BBE2;html=1;" parent="1" source="1350" target="1373" edge="1">
          <mxGeometry x="-260" y="250" width="100" height="100" as="geometry">
            <mxPoint x="-260" y="350" as="sourcePoint" />
            <mxPoint x="-160" y="250" as="targetPoint" />
          </mxGeometry>
        </mxCell>
        <mxCell id="teG91DEkw00-c3EPGH60-1566" value="" style="edgeStyle=orthogonalEdgeStyle;rounded=0;orthogonalLoop=1;jettySize=auto;html=1;strokeColor=#003300;" edge="1" parent="1" source="1388" target="teG91DEkw00-c3EPGH60-1565">
          <mxGeometry relative="1" as="geometry" />
        </mxCell>
        <mxCell id="1388" value="110 a 160" style="rounded=1;strokeWidth=3;shadow=0;html=1;fontColor=#ffffff;strokeColor=none;fillColor=#90B384;" parent="1" vertex="1">
          <mxGeometry x="913.5" y="341.5" width="120" height="40" as="geometry" />
        </mxCell>
        <mxCell id="teG91DEkw00-c3EPGH60-1564" value="" style="edgeStyle=orthogonalEdgeStyle;rounded=0;orthogonalLoop=1;jettySize=auto;html=1;strokeColor=#003300;" edge="1" parent="1" source="1391" target="teG91DEkw00-c3EPGH60-1562">
          <mxGeometry relative="1" as="geometry" />
        </mxCell>
        <mxCell id="1391" value="Disminuye a 100&amp;nbsp;&lt;br&gt;Aumenta hasta 180" style="rounded=1;strokeWidth=3;shadow=0;html=1;fontColor=#ffffff;strokeColor=none;fillColor=#90B384;" parent="1" vertex="1">
          <mxGeometry x="963.5" y="141.5" width="120" height="40" as="geometry" />
        </mxCell>
        <mxCell id="teG91DEkw00-c3EPGH60-1561" value="" style="edgeStyle=orthogonalEdgeStyle;rounded=0;orthogonalLoop=1;jettySize=auto;html=1;strokeColor=#003300;" edge="1" parent="1" source="1395" target="teG91DEkw00-c3EPGH60-1560">
          <mxGeometry relative="1" as="geometry" />
        </mxCell>
        <mxCell id="1395" value="Menor a 100&lt;br&gt;Mayor a 180" style="rounded=1;strokeWidth=3;shadow=0;html=1;fontColor=#ffffff;strokeColor=none;fillColor=#90B384;" parent="1" vertex="1">
          <mxGeometry x="1260" y="150" width="120" height="40" as="geometry" />
        </mxCell>
        <mxCell id="1398" value="Promedio de FCF" style="rounded=1;strokeWidth=3;shadow=0;html=1;fontColor=#ffffff;strokeColor=none;fillColor=#90B384;" parent="1" vertex="1">
          <mxGeometry x="1238.5" y="401.5" width="120" height="40" as="geometry" />
        </mxCell>
        <mxCell id="1400" value="Medida de" style="edgeStyle=none;endArrow=none;strokeWidth=3;strokeColor=#3A5431;html=1;fillColor=#6d8764;" parent="1" source="1351" target="1388" edge="1">
          <mxGeometry x="3.5" y="21.5" width="100" height="100" as="geometry">
            <mxPoint x="3.5" y="121.5" as="sourcePoint" />
            <mxPoint x="103.5" y="21.5" as="targetPoint" />
          </mxGeometry>
        </mxCell>
        <mxCell id="1403" value="Medida" style="edgeStyle=none;endArrow=none;strokeWidth=3;strokeColor=#3A5431;html=1;fillColor=#6d8764;" parent="1" source="1351" target="1391" edge="1">
          <mxGeometry x="3.5" y="21.5" width="100" height="100" as="geometry">
            <mxPoint x="3.5" y="121.5" as="sourcePoint" />
            <mxPoint x="103.5" y="21.5" as="targetPoint" />
          </mxGeometry>
        </mxCell>
        <mxCell id="1407" value="Medida" style="edgeStyle=none;endArrow=none;strokeWidth=3;strokeColor=#3A5431;html=1;fillColor=#6d8764;" parent="1" source="1351" target="1395" edge="1">
          <mxGeometry x="3.5" y="21.5" width="100" height="100" as="geometry">
            <mxPoint x="3.5" y="121.5" as="sourcePoint" />
            <mxPoint x="103.5" y="21.5" as="targetPoint" />
          </mxGeometry>
        </mxCell>
        <mxCell id="1410" value="Se define como" style="edgeStyle=none;endArrow=none;strokeWidth=3;strokeColor=#3A5431;html=1;fillColor=#6d8764;" parent="1" source="1351" target="1398" edge="1">
          <mxGeometry x="3.5" y="21.5" width="100" height="100" as="geometry">
            <mxPoint x="3.5" y="121.5" as="sourcePoint" />
            <mxPoint x="103.5" y="21.5" as="targetPoint" />
          </mxGeometry>
        </mxCell>
        <mxCell id="teG91DEkw00-c3EPGH60-1739" value="" style="edgeStyle=orthogonalEdgeStyle;rounded=0;orthogonalLoop=1;jettySize=auto;html=1;shadow=0;strokeColor=#B5739D;entryX=0.5;entryY=1;entryDx=0;entryDy=0;" edge="1" parent="1" source="1457" target="teG91DEkw00-c3EPGH60-1686">
          <mxGeometry relative="1" as="geometry" />
        </mxCell>
        <mxCell id="1457" value="Simple" style="rounded=1;strokeWidth=1;shadow=0;html=1;fontColor=#FFFFFF;fillColor=#BFB9E8;strokeColor=#BFB9E8;" parent="1" vertex="1">
          <mxGeometry x="1471" y="980.4" width="120" height="40" as="geometry" />
        </mxCell>
        <mxCell id="1458" value="Periódicas" style="rounded=1;fillColor=#a29dc5;strokeColor=none;strokeWidth=3;shadow=0;html=1;fontColor=#FFFFFF;" parent="1" vertex="1">
          <mxGeometry x="1381.5" y="1234.0300000000002" width="120" height="40" as="geometry" />
        </mxCell>
        <mxCell id="teG91DEkw00-c3EPGH60-1659" value="" style="edgeStyle=orthogonalEdgeStyle;rounded=0;orthogonalLoop=1;jettySize=auto;html=1;shadow=0;strokeColor=#B5739D;" edge="1" parent="1" source="1459" target="teG91DEkw00-c3EPGH60-1658">
          <mxGeometry relative="1" as="geometry" />
        </mxCell>
        <mxCell id="teG91DEkw00-c3EPGH60-1680" value="" style="edgeStyle=orthogonalEdgeStyle;rounded=0;orthogonalLoop=1;jettySize=auto;html=1;shadow=0;exitX=1;exitY=0.5;exitDx=0;exitDy=0;strokeColor=#B5739D;" edge="1" parent="1" source="teG91DEkw00-c3EPGH60-1641" target="teG91DEkw00-c3EPGH60-1679">
          <mxGeometry relative="1" as="geometry" />
        </mxCell>
        <mxCell id="1459" value="Variables" style="rounded=1;fillColor=#a29dc5;strokeColor=none;strokeWidth=3;shadow=0;html=1;fontColor=#FFFFFF;" parent="1" vertex="1">
          <mxGeometry x="1571" y="1085.64" width="120" height="40" as="geometry" />
        </mxCell>
        <mxCell id="1460" value="Prolongadas" style="rounded=1;fillColor=#a29dc5;strokeColor=none;strokeWidth=3;shadow=0;html=1;fontColor=#FFFFFF;" parent="1" vertex="1">
          <mxGeometry x="1740" y="1121.0800000000002" width="120" height="40" as="geometry" />
        </mxCell>
        <mxCell id="teG91DEkw00-c3EPGH60-1636" value="Medida" style="edgeStyle=orthogonalEdgeStyle;rounded=0;orthogonalLoop=1;jettySize=auto;html=1;shadow=0;strokeColor=#B5739D;" edge="1" parent="1" source="1461" target="teG91DEkw00-c3EPGH60-1635">
          <mxGeometry relative="1" as="geometry" />
        </mxCell>
        <mxCell id="1461" value="Disminución de la&lt;br&gt;FCF" style="rounded=1;fillColor=#a29dc5;strokeColor=none;strokeWidth=3;shadow=0;html=1;fontColor=#FFFFFF;" parent="1" vertex="1">
          <mxGeometry x="1691" y="1327.14" width="120" height="40" as="geometry" />
        </mxCell>
        <mxCell id="teG91DEkw00-c3EPGH60-1646" value="" style="edgeStyle=orthogonalEdgeStyle;rounded=0;orthogonalLoop=1;jettySize=auto;html=1;shadow=0;strokeColor=#B5739D;" edge="1" parent="1" source="1462" target="teG91DEkw00-c3EPGH60-1645">
          <mxGeometry relative="1" as="geometry" />
        </mxCell>
        <mxCell id="1462" value="Precoces" style="rounded=1;fillColor=#a29dc5;strokeColor=none;strokeWidth=3;shadow=0;html=1;fontColor=#FFFFFF;" parent="1" vertex="1">
          <mxGeometry x="1311.5" y="1341.0300000000002" width="120" height="40" as="geometry" />
        </mxCell>
        <mxCell id="1463" value="" style="edgeStyle=none;endArrow=none;strokeWidth=3;strokeColor=#A29DC5;html=1;entryX=0.5;entryY=1;entryDx=0;entryDy=0;" parent="1" source="1354" target="1460" edge="1">
          <mxGeometry x="121" y="-107.86" width="100" height="100" as="geometry">
            <mxPoint x="121" y="-7.86" as="sourcePoint" />
            <mxPoint x="1766" y="1155.64" as="targetPoint" />
          </mxGeometry>
        </mxCell>
        <mxCell id="1464" value="Se define como" style="edgeStyle=none;endArrow=none;strokeWidth=3;strokeColor=#A29DC5;html=1;" parent="1" source="1354" target="1461" edge="1">
          <mxGeometry x="121" y="-107.86" width="100" height="100" as="geometry">
            <mxPoint x="121" y="-7.86" as="sourcePoint" />
            <mxPoint x="221" y="-107.86" as="targetPoint" />
          </mxGeometry>
        </mxCell>
        <mxCell id="1465" value="" style="edgeStyle=none;endArrow=none;strokeWidth=3;strokeColor=#A29DC5;html=1;exitX=0;exitY=0.5;exitDx=0;exitDy=0;" parent="1" source="1354" target="1458" edge="1">
          <mxGeometry x="62.5" y="-119.47" width="100" height="100" as="geometry">
            <mxPoint x="1525.2976177439" y="1229.3899357023497" as="sourcePoint" />
            <mxPoint x="162.5" y="-119.47" as="targetPoint" />
          </mxGeometry>
        </mxCell>
        <mxCell id="1466" value="" style="edgeStyle=none;endArrow=none;strokeWidth=3;strokeColor=#A29DC5;html=1;exitX=0.5;exitY=1;exitDx=0;exitDy=0;" parent="1" source="1458" target="1462" edge="1">
          <mxGeometry x="62.5" y="-119.47" width="100" height="100" as="geometry">
            <mxPoint x="62.5" y="-19.47" as="sourcePoint" />
            <mxPoint x="162.5" y="-119.47" as="targetPoint" />
          </mxGeometry>
        </mxCell>
        <mxCell id="1467" value="" style="edgeStyle=none;endArrow=none;strokeWidth=3;strokeColor=#A29DC5;html=1;exitX=0.5;exitY=0;exitDx=0;exitDy=0;" parent="1" source="1459" target="1457" edge="1">
          <mxGeometry x="90" y="-116.98" width="100" height="100" as="geometry">
            <mxPoint x="1600" y="1076.5200000000002" as="sourcePoint" />
            <mxPoint x="190" y="-116.98" as="targetPoint" />
          </mxGeometry>
        </mxCell>
        <mxCell id="r9iHhsKBmyso8cJKqbTw-1545" value="proveer&lt;br&gt;Información" style="edgeStyle=orthogonalEdgeStyle;rounded=0;orthogonalLoop=1;jettySize=auto;html=1;strokeColor=#FFB366;" parent="1" source="1471" target="r9iHhsKBmyso8cJKqbTw-1544" edge="1">
          <mxGeometry x="-0.4505" relative="1" as="geometry">
            <Array as="points">
              <mxPoint x="1081" y="1471.45" />
              <mxPoint x="1081" y="1419.45" />
            </Array>
            <mxPoint as="offset" />
          </mxGeometry>
        </mxCell>
        <mxCell id="1471" value="OBJETIVO" style="rounded=1;fillColor=#f5af58;strokeColor=none;strokeWidth=3;shadow=0;html=1;fontColor=#FFFFFF;" parent="1" vertex="1">
          <mxGeometry x="861" y="1451.45" width="120" height="40" as="geometry" />
        </mxCell>
        <mxCell id="1473" value="Impreso en&amp;nbsp;&lt;br&gt;Papel Térmico" style="rounded=1;fillColor=#f5af58;strokeColor=none;strokeWidth=3;shadow=0;html=1;fontColor=#FFFFFF;" parent="1" vertex="1">
          <mxGeometry x="714.5" y="1463.95" width="120" height="40" as="geometry" />
        </mxCell>
        <mxCell id="1475" value="Embarazo y&amp;nbsp;&lt;br&gt;Trabajo de parto" style="rounded=1;fillColor=#f5af58;strokeColor=none;strokeWidth=3;shadow=0;html=1;fontColor=#FFFFFF;" parent="1" vertex="1">
          <mxGeometry x="630" y="1171.5800000000002" width="120" height="40" as="geometry" />
        </mxCell>
        <mxCell id="1478" value="Gráfica y&lt;br&gt;Numérica" style="rounded=1;fillColor=#f5af58;strokeColor=none;strokeWidth=3;shadow=0;html=1;fontColor=#FFFFFF;" parent="1" vertex="1">
          <mxGeometry x="1010" y="1181.21" width="120" height="40" as="geometry" />
        </mxCell>
        <mxCell id="1479" value="" style="edgeStyle=none;endArrow=none;strokeWidth=3;strokeColor=#F5AF58;html=1;" parent="1" source="1355" target="1478" edge="1">
          <mxGeometry x="-150.5" y="18.95" width="100" height="100" as="geometry">
            <mxPoint x="-150.5" y="118.95" as="sourcePoint" />
            <mxPoint x="-50.5" y="18.95" as="targetPoint" />
          </mxGeometry>
        </mxCell>
        <mxCell id="teG91DEkw00-c3EPGH60-1542" value="Lectura" style="edgeLabel;html=1;align=center;verticalAlign=middle;resizable=0;points=[];" vertex="1" connectable="0" parent="1479">
          <mxGeometry relative="1" as="geometry">
            <mxPoint x="-6" y="9" as="offset" />
          </mxGeometry>
        </mxCell>
        <mxCell id="1483" value="" style="edgeStyle=none;endArrow=none;strokeWidth=3;strokeColor=#F5AF58;html=1;" parent="1" source="1355" target="1471" edge="1">
          <mxGeometry x="-150.5" y="18.95" width="100" height="100" as="geometry">
            <mxPoint x="-150.5" y="118.95" as="sourcePoint" />
            <mxPoint x="-50.5" y="18.95" as="targetPoint" />
          </mxGeometry>
        </mxCell>
        <mxCell id="1485" value="" style="edgeStyle=none;endArrow=none;strokeWidth=3;strokeColor=#F5AF58;html=1;" parent="1" source="1355" target="1473" edge="1">
          <mxGeometry x="-150.5" y="18.95" width="100" height="100" as="geometry">
            <mxPoint x="-150.5" y="118.95" as="sourcePoint" />
            <mxPoint x="-50.5" y="18.95" as="targetPoint" />
          </mxGeometry>
        </mxCell>
        <mxCell id="1487" value="" style="edgeStyle=none;endArrow=none;strokeWidth=3;strokeColor=#F5AF58;html=1;" parent="1" source="1355" target="1475" edge="1">
          <mxGeometry x="-150.5" y="18.95" width="100" height="100" as="geometry">
            <mxPoint x="-150.5" y="118.95" as="sourcePoint" />
            <mxPoint x="-50.5" y="18.95" as="targetPoint" />
          </mxGeometry>
        </mxCell>
        <mxCell id="r9iHhsKBmyso8cJKqbTw-1548" value="Seguimiento de" style="edgeLabel;html=1;align=center;verticalAlign=middle;resizable=0;points=[];" parent="1487" vertex="1" connectable="0">
          <mxGeometry relative="1" as="geometry">
            <mxPoint x="-16" y="3" as="offset" />
          </mxGeometry>
        </mxCell>
        <mxCell id="1515" value="&lt;font style=&quot;font-size: 34px&quot;&gt;MONITOREO&lt;br&gt;FETAL&lt;/font&gt;" style="ellipse;whiteSpace=wrap;html=1;shadow=0;fontFamily=Helvetica;fontSize=30;fontColor=#2F5B7C;align=center;strokeColor=#2F5B7C;strokeWidth=6;fillColor=#FFFFFF;fontStyle=1;gradientColor=none;" parent="1" vertex="1">
          <mxGeometry x="961" y="676.5" width="270" height="270" as="geometry" />
        </mxCell>
        <mxCell id="1541" value="" style="edgeStyle=none;endArrow=none;strokeWidth=3;strokeColor=#A29DC5;html=1;" parent="1" source="1354" target="1459" edge="1">
          <mxGeometry x="-1304" y="-412.86" width="100" height="100" as="geometry">
            <mxPoint x="-1304" y="-312.86" as="sourcePoint" />
            <mxPoint x="-1204" y="-412.86" as="targetPoint" />
          </mxGeometry>
        </mxCell>
        <mxCell id="r9iHhsKBmyso8cJKqbTw-1547" value="" style="edgeStyle=orthogonalEdgeStyle;rounded=0;orthogonalLoop=1;jettySize=auto;html=1;exitX=0;exitY=0.5;exitDx=0;exitDy=0;strokeColor=#FFB366;" parent="1" source="r9iHhsKBmyso8cJKqbTw-1544" edge="1">
          <mxGeometry relative="1" as="geometry">
            <Array as="points">
              <mxPoint x="1081" y="1419.45" />
              <mxPoint x="1081" y="1502.45" />
            </Array>
            <mxPoint x="1111" y="1502.45" as="targetPoint" />
          </mxGeometry>
        </mxCell>
        <mxCell id="r9iHhsKBmyso8cJKqbTw-1544" value="Cardiaca&amp;nbsp;&lt;br&gt;Fetal FCF" style="rounded=1;fillColor=#f5af58;strokeColor=none;strokeWidth=3;shadow=0;html=1;fontColor=#FFFFFF;" parent="1" vertex="1">
          <mxGeometry x="1111" y="1399.45" width="120" height="40" as="geometry" />
        </mxCell>
        <mxCell id="r9iHhsKBmyso8cJKqbTw-1546" value="Actividad &lt;br&gt;Uterina AU" style="rounded=1;fillColor=#f5af58;strokeColor=none;strokeWidth=3;shadow=0;html=1;fontColor=#FFFFFF;" parent="1" vertex="1">
          <mxGeometry x="1111" y="1482.45" width="120" height="40" as="geometry" />
        </mxCell>
        <mxCell id="r9iHhsKBmyso8cJKqbTw-1553" value="No Invasivo" style="rounded=1;fillColor=#f5af58;strokeColor=none;strokeWidth=3;shadow=0;html=1;fontColor=#FFFFFF;" parent="1" vertex="1">
          <mxGeometry x="1090" y="1299.47" width="120" height="40" as="geometry" />
        </mxCell>
        <mxCell id="r9iHhsKBmyso8cJKqbTw-1555" value="Procedimiento" style="edgeStyle=none;endArrow=none;strokeWidth=3;strokeColor=#F5AF58;html=1;entryX=0;entryY=0.5;entryDx=0;entryDy=0;" parent="1" target="r9iHhsKBmyso8cJKqbTw-1553" edge="1">
          <mxGeometry x="-129.07" y="74.95" width="100" height="100" as="geometry">
            <mxPoint x="950" y="1330" as="sourcePoint" />
            <mxPoint x="968.5073195876291" y="1269.95" as="targetPoint" />
          </mxGeometry>
        </mxCell>
        <mxCell id="teG91DEkw00-c3EPGH60-1543" value="Normal" style="rounded=1;fillColor=#64BBE2;strokeColor=none;strokeWidth=3;shadow=0;html=1;fontColor=#FFFFFF;" vertex="1" parent="1">
          <mxGeometry x="70" y="465" width="130" height="40" as="geometry" />
        </mxCell>
        <mxCell id="teG91DEkw00-c3EPGH60-1554" value="" style="edgeStyle=orthogonalEdgeStyle;rounded=0;orthogonalLoop=1;jettySize=auto;html=1;strokeColor=#0000CC;" edge="1" parent="1" source="teG91DEkw00-c3EPGH60-1545" target="teG91DEkw00-c3EPGH60-1553">
          <mxGeometry relative="1" as="geometry" />
        </mxCell>
        <mxCell id="teG91DEkw00-c3EPGH60-1545" value="Hipodinamia" style="rounded=1;fillColor=#64BBE2;strokeColor=none;strokeWidth=3;shadow=0;html=1;fontColor=#FFFFFF;" vertex="1" parent="1">
          <mxGeometry x="160" y="340" width="130" height="40" as="geometry" />
        </mxCell>
        <mxCell id="teG91DEkw00-c3EPGH60-1550" value="Puede Causar" style="edgeStyle=orthogonalEdgeStyle;rounded=0;orthogonalLoop=1;jettySize=auto;html=1;strokeColor=#0000CC;" edge="1" parent="1" source="teG91DEkw00-c3EPGH60-1547" target="teG91DEkw00-c3EPGH60-1549">
          <mxGeometry relative="1" as="geometry" />
        </mxCell>
        <mxCell id="teG91DEkw00-c3EPGH60-1547" value="Taquisistolia" style="rounded=1;fillColor=#64BBE2;strokeColor=none;strokeWidth=3;shadow=0;html=1;fontColor=#FFFFFF;" vertex="1" parent="1">
          <mxGeometry x="100" y="610" width="130" height="40" as="geometry" />
        </mxCell>
        <mxCell id="teG91DEkw00-c3EPGH60-1549" value="Desprendimiento&lt;br&gt;de Placenta" style="rounded=1;fillColor=#64BBE2;strokeColor=none;strokeWidth=3;shadow=0;html=1;fontColor=#FFFFFF;" vertex="1" parent="1">
          <mxGeometry x="100" y="730" width="130" height="40" as="geometry" />
        </mxCell>
        <mxCell id="teG91DEkw00-c3EPGH60-1551" value="20 Cuadros (30 S)" style="rounded=1;fillColor=#64BBE2;strokeColor=none;strokeWidth=3;shadow=0;html=1;fontColor=#FFFFFF;" vertex="1" parent="1">
          <mxGeometry x="570" y="220" width="130" height="40" as="geometry" />
        </mxCell>
        <mxCell id="teG91DEkw00-c3EPGH60-1553" value="Útero no&amp;nbsp;&lt;br&gt;Reacciona para parto" style="rounded=1;fillColor=#64BBE2;strokeColor=none;strokeWidth=3;shadow=0;html=1;fontColor=#FFFFFF;" vertex="1" parent="1">
          <mxGeometry x="160" y="220" width="130" height="40" as="geometry" />
        </mxCell>
        <mxCell id="teG91DEkw00-c3EPGH60-1560" value="Cat &lt;font face=&quot;Times New Roman&quot;&gt;III&lt;/font&gt;" style="ellipse;whiteSpace=wrap;html=1;rounded=1;shadow=0;strokeColor=#ae4132;strokeWidth=3;fillColor=#fad9d5;" vertex="1" parent="1">
          <mxGeometry x="1456" y="140" width="60" height="60" as="geometry" />
        </mxCell>
        <mxCell id="teG91DEkw00-c3EPGH60-1562" value="Cat &lt;font face=&quot;Times New Roman&quot;&gt;II&lt;/font&gt;" style="ellipse;whiteSpace=wrap;html=1;rounded=1;shadow=0;strokeColor=#0e8088;strokeWidth=3;fillColor=#b0e3e6;" vertex="1" parent="1">
          <mxGeometry x="883.5" y="70" width="60" height="60" as="geometry" />
        </mxCell>
        <mxCell id="teG91DEkw00-c3EPGH60-1565" value="Cat &lt;font face=&quot;Times New Roman&quot;&gt;I&lt;/font&gt;" style="ellipse;whiteSpace=wrap;html=1;rounded=1;shadow=0;strokeColor=#82b366;strokeWidth=3;fillColor=#d5e8d4;" vertex="1" parent="1">
          <mxGeometry x="883.5" y="416.5" width="60" height="60" as="geometry" />
        </mxCell>
        <mxCell id="teG91DEkw00-c3EPGH60-1583" value="Variabilidad&lt;br&gt;3" style="ellipse;whiteSpace=wrap;html=1;shadow=0;fontFamily=Helvetica;fontSize=20;align=center;strokeWidth=3;strokeColor=none;fillColor=#F19C99;" vertex="1" parent="1">
          <mxGeometry x="1688.5" y="585.5" width="120" height="120" as="geometry" />
        </mxCell>
        <mxCell id="teG91DEkw00-c3EPGH60-1584" style="endArrow=none;strokeWidth=6;strokeColor=#ae4132;html=1;fillColor=#fad9d5;exitX=1;exitY=0.5;exitDx=0;exitDy=0;" edge="1" parent="1" target="teG91DEkw00-c3EPGH60-1583" source="1515">
          <mxGeometry relative="1" as="geometry">
            <mxPoint x="1698.2572487257917" y="1021.6075529895461" as="sourcePoint" />
          </mxGeometry>
        </mxCell>
        <mxCell id="teG91DEkw00-c3EPGH60-1585" value="" style="edgeStyle=orthogonalEdgeStyle;rounded=0;orthogonalLoop=1;jettySize=auto;html=1;fillColor=#fad9d5;shadow=0;strokeColor=#ae4132;" edge="1" parent="1" source="teG91DEkw00-c3EPGH60-1586" target="teG91DEkw00-c3EPGH60-1598">
          <mxGeometry relative="1" as="geometry" />
        </mxCell>
        <mxCell id="teG91DEkw00-c3EPGH60-1586" value="5 a 25 LPM" style="rounded=1;strokeWidth=1;shadow=0;html=1;fillColor=#FFEDED;strokeColor=#FFDEDE;" vertex="1" parent="1">
          <mxGeometry x="1481" y="513.1700000000001" width="120" height="40" as="geometry" />
        </mxCell>
        <mxCell id="teG91DEkw00-c3EPGH60-1587" value="" style="edgeStyle=orthogonalEdgeStyle;rounded=0;orthogonalLoop=1;jettySize=auto;html=1;fillColor=#fad9d5;shadow=0;strokeColor=#ae4132;" edge="1" parent="1" source="teG91DEkw00-c3EPGH60-1588" target="teG91DEkw00-c3EPGH60-1597">
          <mxGeometry relative="1" as="geometry" />
        </mxCell>
        <mxCell id="teG91DEkw00-c3EPGH60-1604" value="Llamado" style="edgeStyle=orthogonalEdgeStyle;rounded=0;orthogonalLoop=1;jettySize=auto;html=1;shadow=0;strokeColor=#ae4132;fillColor=#fad9d5;exitX=0.75;exitY=0;exitDx=0;exitDy=0;" edge="1" parent="1" source="teG91DEkw00-c3EPGH60-1588" target="teG91DEkw00-c3EPGH60-1603">
          <mxGeometry relative="1" as="geometry" />
        </mxCell>
        <mxCell id="teG91DEkw00-c3EPGH60-1588" value="1 a 5 LPM&lt;br&gt;mayor a 25 LPM" style="rounded=1;strokeWidth=1;shadow=0;html=1;fillColor=#FFEDED;strokeColor=#FFDEDE;" vertex="1" parent="1">
          <mxGeometry x="1721" y="437.25" width="120" height="40" as="geometry" />
        </mxCell>
        <mxCell id="teG91DEkw00-c3EPGH60-1589" value="" style="edgeStyle=orthogonalEdgeStyle;rounded=0;orthogonalLoop=1;jettySize=auto;html=1;fillColor=#fad9d5;shadow=0;strokeColor=#ae4132;" edge="1" parent="1" source="teG91DEkw00-c3EPGH60-1590" target="teG91DEkw00-c3EPGH60-1596">
          <mxGeometry relative="1" as="geometry" />
        </mxCell>
        <mxCell id="teG91DEkw00-c3EPGH60-1590" value="Ausente" style="rounded=1;strokeWidth=1;shadow=0;html=1;fillColor=#FFEDED;strokeColor=#FFDEDE;" vertex="1" parent="1">
          <mxGeometry x="1880" y="526.5" width="120" height="40" as="geometry" />
        </mxCell>
        <mxCell id="teG91DEkw00-c3EPGH60-1591" value="Cambios en la &lt;br&gt;linea base" style="rounded=1;strokeWidth=1;shadow=0;html=1;fillColor=#FFEDED;strokeColor=#FFDEDE;" vertex="1" parent="1">
          <mxGeometry x="1641" y="771.5" width="120" height="40" as="geometry" />
        </mxCell>
        <mxCell id="teG91DEkw00-c3EPGH60-1592" value="Medida de" style="edgeStyle=none;endArrow=none;strokeWidth=3;html=1;fillColor=#fad9d5;shadow=0;strokeColor=#ae4132;" edge="1" parent="1" source="teG91DEkw00-c3EPGH60-1583" target="teG91DEkw00-c3EPGH60-1586">
          <mxGeometry x="546" y="218.85000000000002" width="100" height="100" as="geometry">
            <mxPoint x="1640" y="630" as="sourcePoint" />
            <mxPoint x="646" y="218.85000000000002" as="targetPoint" />
          </mxGeometry>
        </mxCell>
        <mxCell id="teG91DEkw00-c3EPGH60-1593" value="Medida" style="edgeStyle=none;endArrow=none;strokeWidth=3;html=1;fillColor=#fad9d5;exitX=0.5;exitY=0;exitDx=0;exitDy=0;shadow=0;strokeColor=#ae4132;" edge="1" parent="1" source="teG91DEkw00-c3EPGH60-1583" target="teG91DEkw00-c3EPGH60-1588">
          <mxGeometry x="611" y="305.5" width="100" height="100" as="geometry">
            <mxPoint x="1728.5735931288073" y="543.0735931288073" as="sourcePoint" />
            <mxPoint x="711" y="305.5" as="targetPoint" />
          </mxGeometry>
        </mxCell>
        <mxCell id="teG91DEkw00-c3EPGH60-1594" value="Medida" style="edgeStyle=none;endArrow=none;strokeWidth=3;html=1;fillColor=#fad9d5;shadow=0;strokeColor=#ae4132;" edge="1" parent="1" source="teG91DEkw00-c3EPGH60-1583" target="teG91DEkw00-c3EPGH60-1590">
          <mxGeometry x="588.5" y="365.5" width="100" height="100" as="geometry">
            <mxPoint x="588.5" y="465.5" as="sourcePoint" />
            <mxPoint x="688.5" y="365.5" as="targetPoint" />
          </mxGeometry>
        </mxCell>
        <mxCell id="teG91DEkw00-c3EPGH60-1595" value="Se define como" style="edgeStyle=none;endArrow=none;strokeWidth=3;html=1;fillColor=#fad9d5;shadow=0;strokeColor=#ae4132;" edge="1" parent="1" source="teG91DEkw00-c3EPGH60-1583" target="teG91DEkw00-c3EPGH60-1591">
          <mxGeometry x="588.5" y="365.5" width="100" height="100" as="geometry">
            <mxPoint x="588.5" y="465.5" as="sourcePoint" />
            <mxPoint x="688.5" y="365.5" as="targetPoint" />
          </mxGeometry>
        </mxCell>
        <mxCell id="teG91DEkw00-c3EPGH60-1596" value="Cat &lt;font face=&quot;Times New Roman&quot;&gt;III&lt;/font&gt;" style="ellipse;whiteSpace=wrap;html=1;rounded=1;shadow=0;strokeColor=#ae4132;strokeWidth=3;fillColor=#fad9d5;" vertex="1" parent="1">
          <mxGeometry x="2076" y="516.5" width="60" height="60" as="geometry" />
        </mxCell>
        <mxCell id="teG91DEkw00-c3EPGH60-1597" value="Cat &lt;font face=&quot;Times New Roman&quot;&gt;II&lt;/font&gt;" style="ellipse;whiteSpace=wrap;html=1;rounded=1;shadow=0;strokeColor=#0e8088;strokeWidth=3;fillColor=#b0e3e6;" vertex="1" parent="1">
          <mxGeometry x="1641" y="365.75" width="60" height="60" as="geometry" />
        </mxCell>
        <mxCell id="teG91DEkw00-c3EPGH60-1598" value="Cat &lt;font face=&quot;Times New Roman&quot;&gt;I&lt;/font&gt;" style="ellipse;whiteSpace=wrap;html=1;rounded=1;shadow=0;strokeColor=#82b366;strokeWidth=3;fillColor=#d5e8d4;" vertex="1" parent="1">
          <mxGeometry x="1456" y="589.82" width="60" height="60" as="geometry" />
        </mxCell>
        <mxCell id="teG91DEkw00-c3EPGH60-1599" value="" style="edgeStyle=orthogonalEdgeStyle;rounded=0;orthogonalLoop=1;jettySize=auto;html=1;fillColor=#fad9d5;strokeColor=#ae4132;" edge="1" parent="1" source="teG91DEkw00-c3EPGH60-1600" target="teG91DEkw00-c3EPGH60-1602">
          <mxGeometry relative="1" as="geometry" />
        </mxCell>
        <mxCell id="teG91DEkw00-c3EPGH60-1600" value="1 minuto" style="rounded=1;strokeWidth=1;shadow=0;html=1;fillColor=#FFEDED;strokeColor=#FFDEDE;" vertex="1" parent="1">
          <mxGeometry x="1890" y="715.58" width="130" height="40" as="geometry" />
        </mxCell>
        <mxCell id="teG91DEkw00-c3EPGH60-1601" value="Estudio de&amp;nbsp;" style="edgeStyle=none;endArrow=none;strokeWidth=3;strokeColor=#ae4132;html=1;exitX=0.953;exitY=0.775;exitDx=0;exitDy=0;exitPerimeter=0;fillColor=#fad9d5;" edge="1" parent="1" target="teG91DEkw00-c3EPGH60-1600" source="teG91DEkw00-c3EPGH60-1583">
          <mxGeometry x="1180" y="644.52" width="100" height="100" as="geometry">
            <mxPoint x="2019.3138590002875" y="856.4960099682203" as="sourcePoint" />
            <mxPoint x="1280" y="644.52" as="targetPoint" />
          </mxGeometry>
        </mxCell>
        <mxCell id="teG91DEkw00-c3EPGH60-1602" value="2 Cuadros (30 S)" style="rounded=1;strokeWidth=1;shadow=0;html=1;fillColor=#FFEDED;strokeColor=#FFDEDE;" vertex="1" parent="1">
          <mxGeometry x="1990" y="625.5" width="130" height="40" as="geometry" />
        </mxCell>
        <mxCell id="teG91DEkw00-c3EPGH60-1603" value="Patrón silente" style="rounded=1;strokeWidth=1;shadow=0;html=1;fillColor=#FFEDED;strokeColor=#FFDEDE;" vertex="1" parent="1">
          <mxGeometry x="1821" y="351.5" width="120" height="40" as="geometry" />
        </mxCell>
        <mxCell id="teG91DEkw00-c3EPGH60-1609" value="Movimiento involuntario&lt;br&gt;de musculo uterino" style="rounded=1;fillColor=#64BBE2;strokeColor=none;strokeWidth=3;shadow=0;html=1;fontColor=#FFFFFF;" vertex="1" parent="1">
          <mxGeometry x="705" y="448.77" width="130" height="40" as="geometry" />
        </mxCell>
        <mxCell id="teG91DEkw00-c3EPGH60-1610" value="Se define como" style="edgeStyle=none;endArrow=none;strokeWidth=3;strokeColor=#64BBE2;html=1;exitX=1;exitY=0.5;exitDx=0;exitDy=0;" edge="1" parent="1" target="teG91DEkw00-c3EPGH60-1609" source="1350">
          <mxGeometry x="-180.5" y="358.77" width="100" height="100" as="geometry">
            <mxPoint x="620.9999999999989" y="555.0000000000001" as="sourcePoint" />
            <mxPoint x="-80.5" y="358.77" as="targetPoint" />
          </mxGeometry>
        </mxCell>
        <mxCell id="teG91DEkw00-c3EPGH60-1611" value="&lt;font style=&quot;font-size: 19px&quot;&gt;Aceleraciones&lt;br&gt;4&lt;br&gt;&lt;/font&gt;" style="ellipse;whiteSpace=wrap;html=1;shadow=0;fontFamily=Helvetica;fontSize=20;align=center;strokeWidth=3;fontColor=#ffffff;strokeColor=none;fillColor=#916740;" vertex="1" parent="1">
          <mxGeometry x="522.5" y="875.3300000000002" width="131" height="129.12" as="geometry" />
        </mxCell>
        <mxCell id="teG91DEkw00-c3EPGH60-1612" style="endArrow=none;strokeWidth=6;html=1;fillColor=#fad9d5;exitX=0.08;exitY=0.791;exitDx=0;exitDy=0;exitPerimeter=0;strokeColor=#916740;" edge="1" parent="1" target="teG91DEkw00-c3EPGH60-1611" source="1515">
          <mxGeometry relative="1" as="geometry">
            <mxPoint x="60" y="1400" as="sourcePoint" />
          </mxGeometry>
        </mxCell>
        <mxCell id="teG91DEkw00-c3EPGH60-1613" value="" style="edgeStyle=orthogonalEdgeStyle;rounded=0;orthogonalLoop=1;jettySize=auto;html=1;fillColor=#a20025;shadow=0;strokeColor=#916740;" edge="1" parent="1" source="teG91DEkw00-c3EPGH60-1614" target="teG91DEkw00-c3EPGH60-1627">
          <mxGeometry relative="1" as="geometry" />
        </mxCell>
        <mxCell id="teG91DEkw00-c3EPGH60-1614" value="Presente o Ausente" style="rounded=1;strokeWidth=1;shadow=0;html=1;fontColor=#ffffff;fillColor=#DBAD8F;strokeColor=#CFA386;" vertex="1" parent="1">
          <mxGeometry x="300" y="867.8000000000002" width="120" height="40" as="geometry" />
        </mxCell>
        <mxCell id="teG91DEkw00-c3EPGH60-1615" value="" style="edgeStyle=orthogonalEdgeStyle;rounded=0;orthogonalLoop=1;jettySize=auto;html=1;fillColor=#a20025;shadow=0;strokeColor=#916740;" edge="1" parent="1" source="teG91DEkw00-c3EPGH60-1617" target="teG91DEkw00-c3EPGH60-1626">
          <mxGeometry relative="1" as="geometry" />
        </mxCell>
        <mxCell id="teG91DEkw00-c3EPGH60-1617" value="Ausencia luego de&lt;br&gt;Estimulación Fetal" style="rounded=1;strokeWidth=1;shadow=0;html=1;fontColor=#ffffff;fillColor=#DBAD8F;strokeColor=#CFA386;" vertex="1" parent="1">
          <mxGeometry x="535" y="748.33" width="120" height="40" as="geometry" />
        </mxCell>
        <mxCell id="teG91DEkw00-c3EPGH60-1634" value="Medida&amp;nbsp;" style="edgeStyle=orthogonalEdgeStyle;rounded=0;orthogonalLoop=1;jettySize=auto;html=1;shadow=0;strokeColor=#916740;" edge="1" parent="1" source="teG91DEkw00-c3EPGH60-1620" target="teG91DEkw00-c3EPGH60-1629">
          <mxGeometry relative="1" as="geometry" />
        </mxCell>
        <mxCell id="teG91DEkw00-c3EPGH60-1620" value="Aumento de la&lt;br&gt;FCF" style="rounded=1;strokeWidth=1;shadow=0;html=1;fontColor=#ffffff;fillColor=#DBAD8F;strokeColor=#CFA386;" vertex="1" parent="1">
          <mxGeometry x="420" y="1055.9499999999998" width="120" height="40" as="geometry" />
        </mxCell>
        <mxCell id="teG91DEkw00-c3EPGH60-1621" value="Medida" style="edgeStyle=none;endArrow=none;strokeWidth=3;html=1;fillColor=#a20025;shadow=0;strokeColor=#916740;" edge="1" parent="1" source="teG91DEkw00-c3EPGH60-1611" target="teG91DEkw00-c3EPGH60-1614">
          <mxGeometry x="-620" y="508.68" width="100" height="100" as="geometry">
            <mxPoint x="474" y="919.8300000000002" as="sourcePoint" />
            <mxPoint x="-520" y="508.68" as="targetPoint" />
          </mxGeometry>
        </mxCell>
        <mxCell id="teG91DEkw00-c3EPGH60-1622" value="Medida" style="edgeStyle=none;endArrow=none;strokeWidth=3;html=1;fillColor=#a20025;exitX=0.5;exitY=0;exitDx=0;exitDy=0;shadow=0;strokeColor=#916740;" edge="1" parent="1" source="teG91DEkw00-c3EPGH60-1611" target="teG91DEkw00-c3EPGH60-1617">
          <mxGeometry x="-555" y="595.33" width="100" height="100" as="geometry">
            <mxPoint x="562.5735931288073" y="832.9035931288074" as="sourcePoint" />
            <mxPoint x="-455" y="595.33" as="targetPoint" />
          </mxGeometry>
        </mxCell>
        <mxCell id="teG91DEkw00-c3EPGH60-1624" value="Se define como" style="edgeStyle=none;endArrow=none;strokeWidth=3;html=1;fillColor=#a20025;shadow=0;strokeColor=#916740;" edge="1" parent="1" source="teG91DEkw00-c3EPGH60-1611" target="teG91DEkw00-c3EPGH60-1620">
          <mxGeometry x="-577.5" y="655.33" width="100" height="100" as="geometry">
            <mxPoint x="-577.5" y="755.33" as="sourcePoint" />
            <mxPoint x="-477.5" y="655.33" as="targetPoint" />
          </mxGeometry>
        </mxCell>
        <mxCell id="teG91DEkw00-c3EPGH60-1626" value="Cat &lt;font face=&quot;Times New Roman&quot;&gt;II&lt;/font&gt;" style="ellipse;whiteSpace=wrap;html=1;rounded=1;shadow=0;strokeColor=#0e8088;strokeWidth=3;fillColor=#b0e3e6;" vertex="1" parent="1">
          <mxGeometry x="430" y="695.58" width="60" height="60" as="geometry" />
        </mxCell>
        <mxCell id="teG91DEkw00-c3EPGH60-1627" value="Cat &lt;font face=&quot;Times New Roman&quot;&gt;I&lt;/font&gt;" style="ellipse;whiteSpace=wrap;html=1;rounded=1;shadow=0;strokeColor=#82b366;strokeWidth=3;fillColor=#d5e8d4;" vertex="1" parent="1">
          <mxGeometry x="275" y="944.4500000000003" width="60" height="60" as="geometry" />
        </mxCell>
        <mxCell id="teG91DEkw00-c3EPGH60-1628" value="en" style="edgeStyle=orthogonalEdgeStyle;rounded=0;orthogonalLoop=1;jettySize=auto;html=1;fillColor=#a20025;strokeColor=#916740;" edge="1" parent="1" source="teG91DEkw00-c3EPGH60-1629" target="teG91DEkw00-c3EPGH60-1631">
          <mxGeometry relative="1" as="geometry" />
        </mxCell>
        <mxCell id="teG91DEkw00-c3EPGH60-1629" value="Mayor a 15 LPM" style="rounded=1;strokeWidth=1;shadow=0;html=1;fontColor=#ffffff;fillColor=#DBAD8F;strokeColor=#CFA386;" vertex="1" parent="1">
          <mxGeometry x="630" y="1055.9499999999998" width="130" height="40" as="geometry" />
        </mxCell>
        <mxCell id="teG91DEkw00-c3EPGH60-1631" value="15 S" style="rounded=1;strokeWidth=1;shadow=0;html=1;fontColor=#ffffff;fillColor=#DBAD8F;strokeColor=#CFA386;" vertex="1" parent="1">
          <mxGeometry x="772.75" y="999.9999999999998" width="130" height="40" as="geometry" />
        </mxCell>
        <mxCell id="teG91DEkw00-c3EPGH60-1638" value="" style="edgeStyle=orthogonalEdgeStyle;rounded=0;orthogonalLoop=1;jettySize=auto;html=1;shadow=0;strokeColor=#B5739D;" edge="1" parent="1" source="teG91DEkw00-c3EPGH60-1635" target="teG91DEkw00-c3EPGH60-1637">
          <mxGeometry relative="1" as="geometry" />
        </mxCell>
        <mxCell id="teG91DEkw00-c3EPGH60-1635" value="Mayor a 15 LPM" style="rounded=1;fillColor=#a29dc5;strokeColor=none;strokeWidth=3;shadow=0;html=1;fontColor=#FFFFFF;" vertex="1" parent="1">
          <mxGeometry x="1765.5" y="1415.14" width="120" height="40" as="geometry" />
        </mxCell>
        <mxCell id="teG91DEkw00-c3EPGH60-1637" value="15 s" style="rounded=1;fillColor=#a29dc5;strokeColor=none;strokeWidth=3;shadow=0;html=1;fontColor=#FFFFFF;" vertex="1" parent="1">
          <mxGeometry x="1920" y="1455.14" width="120" height="40" as="geometry" />
        </mxCell>
        <mxCell id="teG91DEkw00-c3EPGH60-1652" value="" style="edgeStyle=orthogonalEdgeStyle;rounded=0;orthogonalLoop=1;jettySize=auto;html=1;shadow=0;strokeColor=#B5739D;" edge="1" parent="1" source="teG91DEkw00-c3EPGH60-1639" target="teG91DEkw00-c3EPGH60-1651">
          <mxGeometry relative="1" as="geometry" />
        </mxCell>
        <mxCell id="teG91DEkw00-c3EPGH60-1639" value="Tardías" style="rounded=1;fillColor=#a29dc5;strokeColor=none;strokeWidth=3;shadow=0;html=1;fontColor=#FFFFFF;" vertex="1" parent="1">
          <mxGeometry x="1471.5" y="1341.0300000000002" width="120" height="40" as="geometry" />
        </mxCell>
        <mxCell id="teG91DEkw00-c3EPGH60-1640" value="" style="edgeStyle=none;endArrow=none;strokeWidth=3;strokeColor=#A29DC5;html=1;exitX=0.5;exitY=1;exitDx=0;exitDy=0;" edge="1" parent="1" target="teG91DEkw00-c3EPGH60-1639" source="1458">
          <mxGeometry x="222.5" y="-119.47" width="100" height="100" as="geometry">
            <mxPoint x="1601.5" y="1274.0300000000002" as="sourcePoint" />
            <mxPoint x="322.5" y="-119.47" as="targetPoint" />
          </mxGeometry>
        </mxCell>
        <mxCell id="teG91DEkw00-c3EPGH60-1663" value="" style="edgeStyle=orthogonalEdgeStyle;rounded=0;orthogonalLoop=1;jettySize=auto;html=1;shadow=0;strokeColor=#B5739D;" edge="1" parent="1" source="teG91DEkw00-c3EPGH60-1641" target="teG91DEkw00-c3EPGH60-1662">
          <mxGeometry relative="1" as="geometry" />
        </mxCell>
        <mxCell id="teG91DEkw00-c3EPGH60-1641" value="Complejas" style="rounded=1;strokeWidth=1;shadow=0;html=1;fontColor=#FFFFFF;fillColor=#BFB9E8;strokeColor=#BFB9E8;" vertex="1" parent="1">
          <mxGeometry x="1620" y="980.4" width="120" height="40" as="geometry" />
        </mxCell>
        <mxCell id="teG91DEkw00-c3EPGH60-1642" value="" style="edgeStyle=none;endArrow=none;strokeWidth=3;strokeColor=#A29DC5;html=1;exitX=0.5;exitY=0;exitDx=0;exitDy=0;" edge="1" parent="1" target="teG91DEkw00-c3EPGH60-1641" source="1459">
          <mxGeometry x="239" y="-116.98" width="100" height="100" as="geometry">
            <mxPoint x="1600" y="1076.5200000000002" as="sourcePoint" />
            <mxPoint x="339" y="-116.98" as="targetPoint" />
          </mxGeometry>
        </mxCell>
        <mxCell id="teG91DEkw00-c3EPGH60-1682" value="" style="edgeStyle=orthogonalEdgeStyle;rounded=0;orthogonalLoop=1;jettySize=auto;html=1;shadow=0;strokeColor=#B5739D;" edge="1" parent="1" source="teG91DEkw00-c3EPGH60-1643" target="teG91DEkw00-c3EPGH60-1681">
          <mxGeometry relative="1" as="geometry" />
        </mxCell>
        <mxCell id="teG91DEkw00-c3EPGH60-1684" value="" style="edgeStyle=orthogonalEdgeStyle;rounded=0;orthogonalLoop=1;jettySize=auto;html=1;shadow=0;entryX=0;entryY=0.5;entryDx=0;entryDy=0;exitX=0.75;exitY=1;exitDx=0;exitDy=0;strokeColor=#B5739D;" edge="1" parent="1" source="1460" target="teG91DEkw00-c3EPGH60-1683">
          <mxGeometry relative="1" as="geometry">
            <Array as="points">
              <mxPoint x="1830" y="1191.64" />
            </Array>
          </mxGeometry>
        </mxCell>
        <mxCell id="teG91DEkw00-c3EPGH60-1643" value="Bradicardia&amp;nbsp;&lt;br&gt;sostenida" style="rounded=1;fillColor=#a29dc5;strokeColor=none;strokeWidth=3;shadow=0;html=1;fontColor=#FFFFFF;" vertex="1" parent="1">
          <mxGeometry x="1780.7" y="1226.4900000000002" width="120" height="40" as="geometry" />
        </mxCell>
        <mxCell id="teG91DEkw00-c3EPGH60-1644" value="" style="edgeStyle=none;endArrow=none;strokeWidth=3;strokeColor=#A29DC5;html=1;exitX=1;exitY=0.5;exitDx=0;exitDy=0;" edge="1" parent="1" target="teG91DEkw00-c3EPGH60-1643" source="1354">
          <mxGeometry x="161.7" y="2.990000000000001" width="100" height="100" as="geometry">
            <mxPoint x="1739.9980000000003" y="1285.6399999999999" as="sourcePoint" />
            <mxPoint x="261.7" y="2.990000000000001" as="targetPoint" />
          </mxGeometry>
        </mxCell>
        <mxCell id="teG91DEkw00-c3EPGH60-1650" value="" style="edgeStyle=orthogonalEdgeStyle;rounded=0;orthogonalLoop=1;jettySize=auto;html=1;shadow=0;strokeColor=#B5739D;" edge="1" parent="1" source="teG91DEkw00-c3EPGH60-1645" target="teG91DEkw00-c3EPGH60-1649">
          <mxGeometry relative="1" as="geometry" />
        </mxCell>
        <mxCell id="teG91DEkw00-c3EPGH60-1645" value="Desenso maximo FCF&lt;br&gt;coincidente con&amp;nbsp;&lt;br&gt;Ascenso máximo de AU&lt;br&gt;" style="rounded=1;fillColor=#a29dc5;strokeColor=none;strokeWidth=3;shadow=0;html=1;fontColor=#FFFFFF;" vertex="1" parent="1">
          <mxGeometry x="1290" y="1425.5300000000002" width="130" height="50" as="geometry" />
        </mxCell>
        <mxCell id="teG91DEkw00-c3EPGH60-1649" value="Cat &lt;font face=&quot;Times New Roman&quot;&gt;I&lt;/font&gt;" style="ellipse;whiteSpace=wrap;html=1;rounded=1;shadow=0;strokeColor=#82b366;strokeWidth=3;fillColor=#d5e8d4;" vertex="1" parent="1">
          <mxGeometry x="1300" y="1511.5300000000004" width="60" height="60" as="geometry" />
        </mxCell>
        <mxCell id="teG91DEkw00-c3EPGH60-1654" value="" style="edgeStyle=orthogonalEdgeStyle;rounded=0;orthogonalLoop=1;jettySize=auto;html=1;shadow=0;entryX=0.5;entryY=0;entryDx=0;entryDy=0;strokeColor=#B5739D;" edge="1" parent="1" source="teG91DEkw00-c3EPGH60-1651" target="teG91DEkw00-c3EPGH60-1678">
          <mxGeometry relative="1" as="geometry">
            <mxPoint x="1552.5" y="1511.5300000000002" as="targetPoint" />
          </mxGeometry>
        </mxCell>
        <mxCell id="teG91DEkw00-c3EPGH60-1735" style="edgeStyle=orthogonalEdgeStyle;rounded=0;orthogonalLoop=1;jettySize=auto;html=1;exitX=1;exitY=0.5;exitDx=0;exitDy=0;entryX=1;entryY=0.5;entryDx=0;entryDy=0;shadow=0;strokeColor=#FFB366;" edge="1" parent="1" source="teG91DEkw00-c3EPGH60-1651" target="teG91DEkw00-c3EPGH60-1692">
          <mxGeometry relative="1" as="geometry" />
        </mxCell>
        <mxCell id="teG91DEkw00-c3EPGH60-1651" value="Desenso maximo FCF&lt;br&gt;NO coincidente con&amp;nbsp;&lt;br&gt;Ascenso máximo de AU" style="rounded=1;fillColor=#a29dc5;strokeColor=none;strokeWidth=3;shadow=0;html=1;fontColor=#FFFFFF;" vertex="1" parent="1">
          <mxGeometry x="1481.5" y="1425.5300000000002" width="130" height="50" as="geometry" />
        </mxCell>
        <mxCell id="teG91DEkw00-c3EPGH60-1661" value="Se observa" style="edgeStyle=orthogonalEdgeStyle;rounded=0;orthogonalLoop=1;jettySize=auto;html=1;shadow=0;strokeColor=#B5739D;" edge="1" parent="1" source="teG91DEkw00-c3EPGH60-1658" target="teG91DEkw00-c3EPGH60-1660">
          <mxGeometry relative="1" as="geometry" />
        </mxCell>
        <mxCell id="teG91DEkw00-c3EPGH60-1658" value="No hay relación&amp;nbsp;&lt;br&gt;con AU" style="rounded=1;strokeWidth=1;shadow=0;html=1;fontColor=#FFFFFF;fillColor=#BFB9E8;strokeColor=#BFB9E8;" vertex="1" parent="1">
          <mxGeometry x="1730" y="1045.64" width="120" height="40" as="geometry" />
        </mxCell>
        <mxCell id="teG91DEkw00-c3EPGH60-1660" value="Descenso y&lt;br&gt;Recuperación" style="rounded=1;strokeWidth=1;shadow=0;html=1;fontColor=#FFFFFF;fillColor=#BFB9E8;strokeColor=#BFB9E8;" vertex="1" parent="1">
          <mxGeometry x="1850" y="955.64" width="120" height="40" as="geometry" />
        </mxCell>
        <mxCell id="teG91DEkw00-c3EPGH60-1665" value="Duración" style="edgeStyle=orthogonalEdgeStyle;rounded=0;orthogonalLoop=1;jettySize=auto;html=1;shadow=0;strokeColor=#916740;" edge="1" parent="1" source="teG91DEkw00-c3EPGH60-1662" target="teG91DEkw00-c3EPGH60-1664">
          <mxGeometry x="-0.3428" relative="1" as="geometry">
            <mxPoint as="offset" />
          </mxGeometry>
        </mxCell>
        <mxCell id="teG91DEkw00-c3EPGH60-1669" value="Descenso" style="edgeStyle=orthogonalEdgeStyle;rounded=0;orthogonalLoop=1;jettySize=auto;html=1;shadow=0;strokeColor=#916740;" edge="1" parent="1" source="teG91DEkw00-c3EPGH60-1662" target="teG91DEkw00-c3EPGH60-1668">
          <mxGeometry relative="1" as="geometry" />
        </mxCell>
        <mxCell id="teG91DEkw00-c3EPGH60-1671" value="" style="edgeStyle=orthogonalEdgeStyle;rounded=0;orthogonalLoop=1;jettySize=auto;html=1;shadow=0;entryX=0.5;entryY=1;entryDx=0;entryDy=0;strokeColor=#B5739D;" edge="1" parent="1" source="teG91DEkw00-c3EPGH60-1662" target="teG91DEkw00-c3EPGH60-1670">
          <mxGeometry relative="1" as="geometry" />
        </mxCell>
        <mxCell id="teG91DEkw00-c3EPGH60-1672" value="Disminuye a" style="edgeLabel;html=1;align=center;verticalAlign=middle;resizable=0;points=[];" vertex="1" connectable="0" parent="teG91DEkw00-c3EPGH60-1671">
          <mxGeometry x="-0.4381" relative="1" as="geometry">
            <mxPoint x="9.67" y="-0.02" as="offset" />
          </mxGeometry>
        </mxCell>
        <mxCell id="teG91DEkw00-c3EPGH60-1662" value="Regla del 60" style="rounded=1;strokeWidth=1;shadow=0;html=1;fontColor=#FFFFFF;fillColor=#BFB9E8;strokeColor=#BFB9E8;" vertex="1" parent="1">
          <mxGeometry x="1620" y="909.52" width="120" height="40" as="geometry" />
        </mxCell>
        <mxCell id="teG91DEkw00-c3EPGH60-1664" value="Mayor a 60 S" style="rounded=1;strokeWidth=1;shadow=0;html=1;fontColor=#FFFFFF;fillColor=#BFB9E8;strokeColor=#BFB9E8;" vertex="1" parent="1">
          <mxGeometry x="1481.5" y="865.64" width="99" height="31.13" as="geometry" />
        </mxCell>
        <mxCell id="teG91DEkw00-c3EPGH60-1668" value="&amp;nbsp;Menor a&amp;nbsp;&lt;br&gt;60 LPM" style="rounded=1;strokeWidth=1;shadow=0;html=1;fontColor=#FFFFFF;fillColor=#BFB9E8;strokeColor=#BFB9E8;" vertex="1" parent="1">
          <mxGeometry x="1627.75" y="835.64" width="104.5" height="30" as="geometry" />
        </mxCell>
        <mxCell id="teG91DEkw00-c3EPGH60-1670" value="Más de 60&lt;br&gt;desde linea basal" style="rounded=1;strokeWidth=1;shadow=0;html=1;fontColor=#FFFFFF;fillColor=#BFB9E8;strokeColor=#BFB9E8;" vertex="1" parent="1">
          <mxGeometry x="1765.5" y="865.64" width="104.5" height="30" as="geometry" />
        </mxCell>
        <mxCell id="teG91DEkw00-c3EPGH60-1673" value="Duración&lt;br&gt;entre" style="edgeStyle=orthogonalEdgeStyle;rounded=0;orthogonalLoop=1;jettySize=auto;html=1;shadow=0;exitX=1;exitY=0.5;exitDx=0;exitDy=0;strokeColor=#B5739D;" edge="1" parent="1" target="teG91DEkw00-c3EPGH60-1674" source="1460">
          <mxGeometry x="-0.2514" relative="1" as="geometry">
            <mxPoint x="2020.25" y="1108.986551724138" as="sourcePoint" />
            <mxPoint as="offset" />
          </mxGeometry>
        </mxCell>
        <mxCell id="teG91DEkw00-c3EPGH60-1674" value="2 y 10 minutos" style="rounded=1;strokeWidth=1;shadow=0;html=1;fontColor=#FFFFFF;fillColor=#BFB9E8;strokeColor=#BFB9E8;" vertex="1" parent="1">
          <mxGeometry x="1881.75" y="1068.9900000000002" width="99" height="31.13" as="geometry" />
        </mxCell>
        <mxCell id="teG91DEkw00-c3EPGH60-1676" value="Duración" style="edgeStyle=orthogonalEdgeStyle;rounded=0;orthogonalLoop=1;jettySize=auto;html=1;shadow=0;exitX=1;exitY=0.5;exitDx=0;exitDy=0;strokeColor=#B5739D;" edge="1" parent="1" target="teG91DEkw00-c3EPGH60-1677" source="teG91DEkw00-c3EPGH60-1643">
          <mxGeometry x="-0.2514" relative="1" as="geometry">
            <mxPoint x="1910" y="1247.7300000000005" as="sourcePoint" />
            <mxPoint as="offset" />
          </mxGeometry>
        </mxCell>
        <mxCell id="teG91DEkw00-c3EPGH60-1677" value="mayor a 10 minutos" style="rounded=1;fillColor=#a29dc5;strokeColor=none;strokeWidth=3;shadow=0;html=1;fontColor=#FFFFFF;" vertex="1" parent="1">
          <mxGeometry x="1946" y="1176.01" width="110.75" height="31.13" as="geometry" />
        </mxCell>
        <mxCell id="teG91DEkw00-c3EPGH60-1678" value="Cat &lt;font face=&quot;Times New Roman&quot;&gt;III&lt;/font&gt;" style="ellipse;whiteSpace=wrap;html=1;rounded=1;shadow=0;strokeColor=#ae4132;strokeWidth=3;fillColor=#fad9d5;" vertex="1" parent="1">
          <mxGeometry x="1541" y="1511.5300000000002" width="60" height="60" as="geometry" />
        </mxCell>
        <mxCell id="teG91DEkw00-c3EPGH60-1679" value="Cat &lt;font face=&quot;Times New Roman&quot;&gt;III&lt;/font&gt;" style="ellipse;whiteSpace=wrap;html=1;rounded=1;shadow=0;strokeColor=#ae4132;strokeWidth=3;fillColor=#fad9d5;" vertex="1" parent="1">
          <mxGeometry x="1780" y="945.64" width="60" height="60" as="geometry" />
        </mxCell>
        <mxCell id="teG91DEkw00-c3EPGH60-1681" value="Cat &lt;font face=&quot;Times New Roman&quot;&gt;III&lt;/font&gt;" style="ellipse;whiteSpace=wrap;html=1;rounded=1;shadow=0;strokeColor=#ae4132;strokeWidth=3;fillColor=#fad9d5;" vertex="1" parent="1">
          <mxGeometry x="1841" y="1302.64" width="60" height="60" as="geometry" />
        </mxCell>
        <mxCell id="teG91DEkw00-c3EPGH60-1683" value="Cat &lt;font face=&quot;Times New Roman&quot;&gt;II&lt;/font&gt;" style="ellipse;whiteSpace=wrap;html=1;rounded=1;shadow=0;strokeColor=#0e8088;strokeWidth=3;fillColor=#b0e3e6;" vertex="1" parent="1">
          <mxGeometry x="1850" y="1161.2100000000003" width="60" height="60" as="geometry" />
        </mxCell>
        <mxCell id="teG91DEkw00-c3EPGH60-1686" value="Cat &lt;font face=&quot;Times New Roman&quot;&gt;II&lt;/font&gt;" style="ellipse;whiteSpace=wrap;html=1;rounded=1;shadow=0;strokeColor=#0e8088;strokeWidth=3;fillColor=#b0e3e6;" vertex="1" parent="1">
          <mxGeometry x="1380" y="920.4000000000002" width="60" height="60" as="geometry" />
        </mxCell>
        <mxCell id="teG91DEkw00-c3EPGH60-1688" value="Periódicas" style="rounded=1;strokeWidth=1;shadow=0;html=1;fontColor=#FFFFFF;fillColor=#BFB9E8;strokeColor=#BFB9E8;" vertex="1" parent="1">
          <mxGeometry x="1381.5" y="1234.0300000000002" width="120" height="40" as="geometry" />
        </mxCell>
        <mxCell id="teG91DEkw00-c3EPGH60-1689" value="Precoces" style="rounded=1;strokeWidth=1;shadow=0;html=1;fontColor=#FFFFFF;fillColor=#BFB9E8;strokeColor=#BFB9E8;" vertex="1" parent="1">
          <mxGeometry x="1311.5" y="1341.0300000000002" width="120" height="40" as="geometry" />
        </mxCell>
        <mxCell id="teG91DEkw00-c3EPGH60-1690" value="Tardías" style="rounded=1;strokeWidth=1;shadow=0;html=1;fontColor=#FFFFFF;fillColor=#BFB9E8;strokeColor=#BFB9E8;" vertex="1" parent="1">
          <mxGeometry x="1471.5" y="1341.0300000000002" width="120" height="40" as="geometry" />
        </mxCell>
        <mxCell id="teG91DEkw00-c3EPGH60-1691" value="Desenso maximo FCF&lt;br&gt;coincidente con&amp;nbsp;&lt;br&gt;Ascenso máximo de AU&lt;br&gt;" style="rounded=1;strokeWidth=1;shadow=0;html=1;fontColor=#FFFFFF;fillColor=#BFB9E8;strokeColor=#BFB9E8;" vertex="1" parent="1">
          <mxGeometry x="1290" y="1425.5300000000002" width="130" height="50" as="geometry" />
        </mxCell>
        <mxCell id="teG91DEkw00-c3EPGH60-1692" value="Desenso maximo FCF&lt;br&gt;NO coincidente con&amp;nbsp;&lt;br&gt;Ascenso máximo de AU" style="rounded=1;strokeWidth=1;shadow=0;html=1;fontColor=#FFFFFF;fillColor=#BFB9E8;strokeColor=#BFB9E8;" vertex="1" parent="1">
          <mxGeometry x="1481.5" y="1425.5300000000002" width="130" height="50" as="geometry" />
        </mxCell>
        <mxCell id="teG91DEkw00-c3EPGH60-1693" value="Disminución de la&lt;br&gt;FCF" style="rounded=1;strokeWidth=1;shadow=0;html=1;fontColor=#FFFFFF;fillColor=#BFB9E8;strokeColor=#BFB9E8;" vertex="1" parent="1">
          <mxGeometry x="1691" y="1327.14" width="120" height="40" as="geometry" />
        </mxCell>
        <mxCell id="teG91DEkw00-c3EPGH60-1694" value="Mayor a 15 LPM" style="rounded=1;strokeWidth=1;shadow=0;html=1;fontColor=#FFFFFF;fillColor=#BFB9E8;strokeColor=#BFB9E8;" vertex="1" parent="1">
          <mxGeometry x="1765.5" y="1415.14" width="120" height="40" as="geometry" />
        </mxCell>
        <mxCell id="teG91DEkw00-c3EPGH60-1695" value="15 s" style="rounded=1;strokeWidth=1;shadow=0;html=1;fontColor=#FFFFFF;fillColor=#BFB9E8;strokeColor=#BFB9E8;" vertex="1" parent="1">
          <mxGeometry x="1920" y="1455.14" width="120" height="40" as="geometry" />
        </mxCell>
        <mxCell id="teG91DEkw00-c3EPGH60-1696" value="Bradicardia&amp;nbsp;&lt;br&gt;sostenida" style="rounded=1;strokeWidth=1;shadow=0;html=1;fontColor=#FFFFFF;fillColor=#BFB9E8;strokeColor=#BFB9E8;" vertex="1" parent="1">
          <mxGeometry x="1780.7" y="1226.4900000000002" width="120" height="40" as="geometry" />
        </mxCell>
        <mxCell id="teG91DEkw00-c3EPGH60-1697" value="mayor a 10 minutos" style="rounded=1;strokeWidth=1;shadow=0;html=1;fontColor=#FFFFFF;fillColor=#BFB9E8;strokeColor=#BFB9E8;" vertex="1" parent="1">
          <mxGeometry x="1946" y="1176.01" width="110.75" height="31.13" as="geometry" />
        </mxCell>
        <mxCell id="teG91DEkw00-c3EPGH60-1698" value="Prolongadas" style="rounded=1;strokeWidth=1;shadow=0;html=1;fontColor=#FFFFFF;fillColor=#BFB9E8;strokeColor=#BFB9E8;" vertex="1" parent="1">
          <mxGeometry x="1740" y="1121.0800000000002" width="120" height="40" as="geometry" />
        </mxCell>
        <mxCell id="teG91DEkw00-c3EPGH60-1699" value="Variables" style="rounded=1;strokeWidth=1;shadow=0;html=1;fontColor=#FFFFFF;fillColor=#BFB9E8;strokeColor=#BFB9E8;" vertex="1" parent="1">
          <mxGeometry x="1571" y="1085.64" width="120" height="40" as="geometry" />
        </mxCell>
        <mxCell id="teG91DEkw00-c3EPGH60-1716" value="" style="edgeStyle=orthogonalEdgeStyle;rounded=0;orthogonalLoop=1;jettySize=auto;html=1;shadow=0;strokeColor=#FFB366;" edge="1" parent="1" source="teG91DEkw00-c3EPGH60-1700" target="teG91DEkw00-c3EPGH60-1704">
          <mxGeometry relative="1" as="geometry" />
        </mxCell>
        <mxCell id="teG91DEkw00-c3EPGH60-1717" value="" style="edgeStyle=orthogonalEdgeStyle;rounded=0;orthogonalLoop=1;jettySize=auto;html=1;shadow=0;strokeColor=#FFB366;" edge="1" parent="1" source="teG91DEkw00-c3EPGH60-1700" target="teG91DEkw00-c3EPGH60-1705">
          <mxGeometry relative="1" as="geometry" />
        </mxCell>
        <mxCell id="teG91DEkw00-c3EPGH60-1718" value="" style="edgeStyle=orthogonalEdgeStyle;rounded=0;orthogonalLoop=1;jettySize=auto;html=1;shadow=0;strokeColor=#FFB366;" edge="1" parent="1" source="teG91DEkw00-c3EPGH60-1700" target="teG91DEkw00-c3EPGH60-1706">
          <mxGeometry relative="1" as="geometry" />
        </mxCell>
        <mxCell id="teG91DEkw00-c3EPGH60-1700" value="Clasificación" style="rounded=1;fillColor=#f5af58;strokeColor=none;strokeWidth=3;shadow=0;html=1;fontColor=#FFFFFF;" vertex="1" parent="1">
          <mxGeometry x="584.5" y="1350.95" width="120" height="40" as="geometry" />
        </mxCell>
        <mxCell id="teG91DEkw00-c3EPGH60-1728" value="" style="edgeStyle=orthogonalEdgeStyle;rounded=0;orthogonalLoop=1;jettySize=auto;html=1;shadow=0;strokeColor=#FFB366;exitX=0.5;exitY=1;exitDx=0;exitDy=0;entryX=1;entryY=0.5;entryDx=0;entryDy=0;" edge="1" parent="1" source="teG91DEkw00-c3EPGH60-1704" target="teG91DEkw00-c3EPGH60-1721">
          <mxGeometry relative="1" as="geometry" />
        </mxCell>
        <mxCell id="teG91DEkw00-c3EPGH60-1704" value="Cat &lt;font face=&quot;Times New Roman&quot;&gt;III&lt;/font&gt;" style="ellipse;whiteSpace=wrap;html=1;rounded=1;shadow=0;strokeColor=#ae4132;strokeWidth=3;fillColor=#fad9d5;" vertex="1" parent="1">
          <mxGeometry x="614.5" y="1422.45" width="60" height="60" as="geometry" />
        </mxCell>
        <mxCell id="teG91DEkw00-c3EPGH60-1726" value="" style="edgeStyle=orthogonalEdgeStyle;rounded=0;orthogonalLoop=1;jettySize=auto;html=1;shadow=0;strokeColor=#FFB366;" edge="1" parent="1" source="teG91DEkw00-c3EPGH60-1705" target="teG91DEkw00-c3EPGH60-1720">
          <mxGeometry relative="1" as="geometry" />
        </mxCell>
        <mxCell id="teG91DEkw00-c3EPGH60-1705" value="Cat &lt;font face=&quot;Times New Roman&quot;&gt;II&lt;/font&gt;" style="ellipse;whiteSpace=wrap;html=1;rounded=1;shadow=0;strokeWidth=3;fillColor=#ffff88;strokeColor=#CCCC00;" vertex="1" parent="1">
          <mxGeometry x="475" y="1355.14" width="60" height="60" as="geometry" />
        </mxCell>
        <mxCell id="teG91DEkw00-c3EPGH60-1725" value="" style="edgeStyle=orthogonalEdgeStyle;rounded=0;orthogonalLoop=1;jettySize=auto;html=1;shadow=0;strokeColor=#FFB366;" edge="1" parent="1" source="teG91DEkw00-c3EPGH60-1706" target="teG91DEkw00-c3EPGH60-1719">
          <mxGeometry relative="1" as="geometry">
            <Array as="points">
              <mxPoint x="530" y="1256" />
              <mxPoint x="530" y="1220" />
            </Array>
          </mxGeometry>
        </mxCell>
        <mxCell id="teG91DEkw00-c3EPGH60-1706" value="Cat &lt;font face=&quot;Times New Roman&quot;&gt;I&lt;/font&gt;" style="ellipse;whiteSpace=wrap;html=1;rounded=1;shadow=0;strokeColor=#82b366;strokeWidth=3;fillColor=#d5e8d4;" vertex="1" parent="1">
          <mxGeometry x="535" y="1225.64" width="60" height="60" as="geometry" />
        </mxCell>
        <mxCell id="teG91DEkw00-c3EPGH60-1730" value="Acción" style="edgeStyle=orthogonalEdgeStyle;rounded=0;orthogonalLoop=1;jettySize=auto;html=1;shadow=0;strokeColor=#FFB366;" edge="1" parent="1" source="teG91DEkw00-c3EPGH60-1719" target="teG91DEkw00-c3EPGH60-1729">
          <mxGeometry relative="1" as="geometry" />
        </mxCell>
        <mxCell id="teG91DEkw00-c3EPGH60-1719" value="Normal" style="rounded=1;fillColor=#f5af58;strokeColor=none;strokeWidth=3;shadow=0;html=1;fontColor=#FFFFFF;" vertex="1" parent="1">
          <mxGeometry x="430" y="1207.14" width="80" height="25.64" as="geometry" />
        </mxCell>
        <mxCell id="teG91DEkw00-c3EPGH60-1732" value="Acción" style="edgeStyle=orthogonalEdgeStyle;rounded=0;orthogonalLoop=1;jettySize=auto;html=1;shadow=0;strokeColor=#FFB366;" edge="1" parent="1" source="teG91DEkw00-c3EPGH60-1720" target="teG91DEkw00-c3EPGH60-1731">
          <mxGeometry relative="1" as="geometry" />
        </mxCell>
        <mxCell id="teG91DEkw00-c3EPGH60-1720" value="Indeterminado" style="rounded=1;fillColor=#f5af58;strokeColor=none;strokeWidth=3;shadow=0;html=1;fontColor=#FFFFFF;" vertex="1" parent="1">
          <mxGeometry x="340" y="1373.81" width="80" height="25.64" as="geometry" />
        </mxCell>
        <mxCell id="teG91DEkw00-c3EPGH60-1734" value="Acción" style="edgeStyle=orthogonalEdgeStyle;rounded=0;orthogonalLoop=1;jettySize=auto;html=1;shadow=0;strokeColor=#FFB366;" edge="1" parent="1" source="teG91DEkw00-c3EPGH60-1721" target="teG91DEkw00-c3EPGH60-1733">
          <mxGeometry relative="1" as="geometry" />
        </mxCell>
        <mxCell id="teG91DEkw00-c3EPGH60-1721" value="Normal" style="rounded=1;fillColor=#f5af58;strokeColor=none;strokeWidth=3;shadow=0;html=1;fontColor=#FFFFFF;" vertex="1" parent="1">
          <mxGeometry x="515" y="1503.9499999999998" width="80" height="25.64" as="geometry" />
        </mxCell>
        <mxCell id="teG91DEkw00-c3EPGH60-1729" value="Continuar&lt;br&gt;Monitoreo" style="rounded=1;fillColor=#f5af58;strokeColor=none;strokeWidth=3;shadow=0;html=1;fontColor=#FFFFFF;" vertex="1" parent="1">
          <mxGeometry x="290" y="1200.0000000000002" width="80" height="25.64" as="geometry" />
        </mxCell>
        <mxCell id="teG91DEkw00-c3EPGH60-1731" value="Evaluación e&lt;br&gt;Intervención" style="rounded=1;fillColor=#f5af58;strokeColor=none;strokeWidth=3;shadow=0;html=1;fontColor=#FFFFFF;" vertex="1" parent="1">
          <mxGeometry x="220" y="1341.4999999999998" width="80" height="25.64" as="geometry" />
        </mxCell>
        <mxCell id="teG91DEkw00-c3EPGH60-1733" value="Evaluación, &lt;br&gt;Intervención&lt;br&gt;y parto Expedito" style="rounded=1;fillColor=#f5af58;strokeColor=none;strokeWidth=3;shadow=0;html=1;fontColor=#FFFFFF;" vertex="1" parent="1">
          <mxGeometry x="340" y="1490" width="100" height="50" as="geometry" />
        </mxCell>
        <mxCell id="teG91DEkw00-c3EPGH60-1737" value="Duración" style="edgeStyle=orthogonalEdgeStyle;rounded=0;orthogonalLoop=1;jettySize=auto;html=1;shadow=0;strokeColor=#B5739D;" edge="1" parent="1">
          <mxGeometry x="-0.3428" relative="1" as="geometry">
            <mxPoint x="1621.08" y="928.8300000000003" as="sourcePoint" />
            <mxPoint x="1532.0800000000004" y="896.1" as="targetPoint" />
            <mxPoint as="offset" />
          </mxGeometry>
        </mxCell>
        <mxCell id="teG91DEkw00-c3EPGH60-1740" value="Cat &lt;font face=&quot;Times New Roman&quot;&gt;II&lt;/font&gt;" style="ellipse;whiteSpace=wrap;html=1;rounded=1;shadow=0;strokeWidth=3;fillColor=#ffff88;strokeColor=#CCCC00;" vertex="1" parent="1">
          <mxGeometry x="430" y="695.5800000000002" width="60" height="60" as="geometry" />
        </mxCell>
        <mxCell id="teG91DEkw00-c3EPGH60-1741" value="Cat &lt;font face=&quot;Times New Roman&quot;&gt;II&lt;/font&gt;" style="ellipse;whiteSpace=wrap;html=1;rounded=1;shadow=0;strokeWidth=3;fillColor=#ffff88;strokeColor=#CCCC00;" vertex="1" parent="1">
          <mxGeometry x="883.5" y="70" width="60" height="60" as="geometry" />
        </mxCell>
        <mxCell id="teG91DEkw00-c3EPGH60-1742" value="Cat &lt;font face=&quot;Times New Roman&quot;&gt;II&lt;/font&gt;" style="ellipse;whiteSpace=wrap;html=1;rounded=1;shadow=0;strokeWidth=3;fillColor=#ffff88;strokeColor=#CCCC00;" vertex="1" parent="1">
          <mxGeometry x="1641" y="365.75" width="60" height="60" as="geometry" />
        </mxCell>
        <mxCell id="teG91DEkw00-c3EPGH60-1743" value="Cat &lt;font face=&quot;Times New Roman&quot;&gt;II&lt;/font&gt;" style="ellipse;whiteSpace=wrap;html=1;rounded=1;shadow=0;strokeWidth=3;fillColor=#ffff88;strokeColor=#CCCC00;" vertex="1" parent="1">
          <mxGeometry x="1380" y="920.4" width="60" height="60" as="geometry" />
        </mxCell>
        <mxCell id="teG91DEkw00-c3EPGH60-1744" value="Cat &lt;font face=&quot;Times New Roman&quot;&gt;II&lt;/font&gt;" style="ellipse;whiteSpace=wrap;html=1;rounded=1;shadow=0;strokeWidth=3;fillColor=#ffff88;strokeColor=#CCCC00;" vertex="1" parent="1">
          <mxGeometry x="1850" y="1161.58" width="60" height="60" as="geometry" />
        </mxCell>
      </root>
    </mxGraphModel>
  </diagram>
</mxfile>
